%YAML 1.1
%TAG !u! tag:unity3d.com,2011:
--- !u!1045 &1
EditorBuildSettings:
  m_ObjectHideFlags: 0
  serializedVersion: 2
  m_Scenes:
  - enabled: 1
    path: Assets/Sample/CAE.unity
    guid: 6b838de312e6ba848843df3e8292bf38
  m_configObjects: {}
